{
  "name": "markers",
  "version": "0.1.2",
  "factorio_version": "0.17",
  "title": "Markers",
  "author": "dorfl",
  "contact": "Dorfl <ceramic.atheist@gmail.com>",
  "homepage": "https://gitlab.com/aerosuidae/markers",
  "description": "Place markers on the ground. Currently just dots -- 1x1 tile circles -- with configurable colour and optional X,Y caption.",
  "dependencies": [
    "base >= 0.17.35"
  ]
}
